module gitlab.com/fairplay/poo

go 1.17

require (
	github.com/fatih/color v1.16.0 // indirect
	github.com/mattn/go-colorable v0.1.13 // indirect
	github.com/mattn/go-isatty v0.0.20 // indirect
	golang.org/x/sys v0.14.0 // indirect
)
